id,prenom,nom,date_naissance,ville,num_tel
419,QUENTIN,BRETON,2004/07/25,AIX-EN-PROVENCE,08.72.15.74.90
414,ANNY,BROSSARD,2002/02/11,AIX-EN-PROVENCE,08.83.94.91.20
417,GEORGE,CAMARA,2003/02/16,AIX-EN-PROVENCE,08.77.24.31.34
162,FRANCE,CHABOT,2003/03/05,AIX-EN-PROVENCE,08.48.91.27.66
318,LUCE,CISSE,2003/05/15,AIX-EN-PROVENCE,08.64.10.95.62
334,STELLA,CORRE,2005/09/09,AIX-EN-PROVENCE,08.60.18.46.94
119,FERDINAND,GRAS,2002/06/15,AIX-EN-PROVENCE,08.09.07.33.25
235,MAXIMILIEN,MIGNOT,2005/06/17,AIX-EN-PROVENCE,08.95.89.57.42
214,JANE,NICOLLE,2003/03/17,AIX-EN-PROVENCE,08.58.74.87.08
302,PASCALE,PERRIER,2005/10/20,AIX-EN-PROVENCE,08.15.24.33.09
377,PASCAL,SCHMITT,2002/04/16,AIX-EN-PROVENCE,08.03.69.02.07
351,SONIA,THIEBAUT,2005/11/05,AIX-EN-PROVENCE,08.24.85.71.31
323,VALENTINE,CARRIERE,2003/07/12,AMIENS,08.42.43.85.36
259,SUZETTE,CHEVRIER,2003/08/12,AMIENS,08.14.42.35.85
433,MIKAEL,DURET,2004/08/08,AMIENS,08.97.49.82.14
437,NOELLE,FAVRE,2004/08/24,AMIENS,08.26.82.27.45
172,ODILE,GRENIER,2002/10/20,AMIENS,08.32.45.88.31
239,ARMEL,HOAREAU,2002/08/21,AMIENS,08.96.44.66.14
168,NOEL,LECOMTE,2005/09/03,AMIENS,08.01.91.63.19
104,CELINE,PERRIN,2004/08/09,AMIENS,08.18.38.49.96
320,ISAAC,PHAM,2003/11/13,AMIENS,08.72.64.80.58
444,EVELYNE,SALLES,2004/06/19,AMIENS,08.05.10.85.54
82,ABDEL,TECHER,2002/05/27,AMIENS,08.93.96.24.09
210,YVON,TERRIER,2005/01/14,AMIENS,08.20.33.62.12
336,MORGANE,BEGUE,2003/06/05,ANGERS,08.63.22.93.74
73,ANTOINE,BOUTET,2003/07/10,ANGERS,08.39.23.88.82
96,ANITA,FAYOLLE,2003/10/20,ANGERS,08.62.06.65.15
22,GABRIELLE,GUYOT,2003/11/08,ANGERS,08.34.04.84.47
486,ANNA,LESUEUR,2002/07/26,ANGERS,08.23.19.64.68
146,GUY,MAUREL,2005/08/02,ANGERS,08.27.83.25.29
252,MATHIEU,MERLE,2002/04/27,ANGERS,08.83.52.94.78
271,EUGENIE,PARMENTIER,2003/06/14,ANGERS,08.19.48.72.55
382,MYLENE,POTTIER,2003/08/02,ANGERS,08.71.62.87.97
32,CESAR,YILMAZ,2004/03/19,ANGERS,08.01.23.15.26
85,NANCY,BABIN,2005/11/25,ARGENTEUIL,08.83.21.36.12
247,HARRY,BAZIN,2004/09/16,ARGENTEUIL,08.75.72.09.70
174,ADELINE,BERNIER,2002/10/11,ARGENTEUIL,08.17.49.54.41
324,GLADYS,BESSE,2003/05/08,ARGENTEUIL,08.51.64.74.14
420,MARIA,BUREL,2004/01/15,ARGENTEUIL,08.86.40.82.65
161,MARC,DELATTRE,2004/05/01,ARGENTEUIL,08.36.93.56.81
372,KIM,DUPONT,2003/12/25,ARGENTEUIL,08.27.05.36.38
53,LUC,LATOUR,2002/10/13,ARGENTEUIL,08.86.18.80.76
194,CLEMENCE,MOUNIER,2002/08/01,ARGENTEUIL,08.33.00.51.08
384,ALEXIS,PAYEN,2005/03/14,ARGENTEUIL,08.20.34.77.60
311,AGATHE,VERRIER,2002/02/12,ARGENTEUIL,08.18.27.47.52
94,SARA,CARTIER,2003/10/22,BESANCON,08.54.70.64.92
16,JACKIE,FERREIRA,2005/08/06,BESANCON,08.48.09.17.23
4,SAMUEL,GREGOIRE,2004/09/25,BESANCON,08.12.20.38.46
100,MICHELLE,JEAN,2004/06/08,BESANCON,08.48.58.18.73
268,YAN,LECOQ,2003/05/24,BESANCON,08.24.55.06.20
250,ALDO,MASSE,2002/09/08,BESANCON,08.42.16.67.04
129,PIERRETTE,PHILIPPE,2002/04/21,BESANCON,08.94.66.90.67
93,ALINE,REBOUL,2002/12/27,BESANCON,08.70.63.88.25
279,GABRIELLE,RIBEIRO,2003/04/22,BESANCON,08.01.01.69.73
477,NATHALIE,ROSE,2002/03/01,BESANCON,08.89.61.16.41
106,MARC,SERRANO,2005/01/13,BESANCON,08.68.12.16.19
62,JOAO,BINET,2003/01/29,BORDEAUX,08.43.39.36.55
260,NATHAN,BOUILLON,2002/04/07,BORDEAUX,08.85.95.11.18
86,LILIANE,BOUQUET,2002/10/21,BORDEAUX,08.57.72.44.36
439,ELISE,DOUCET,2003/10/24,BORDEAUX,08.25.18.87.33
159,EDDIE,LAVIGNE,2002/11/13,BORDEAUX,08.07.94.90.88
92,JEAN,LEVASSEUR,2005/07/22,BORDEAUX,08.78.80.69.07
292,JOCELYN,MAYER,2002/01/12,BORDEAUX,08.94.13.45.10
474,DENIS,NICOLAS,2002/01/21,BORDEAUX,08.25.28.93.53
327,HASSEN,POTTIER,2004/05/27,BORDEAUX,08.15.48.61.47
65,FRANCOIS,SELLIER,2004/12/12,BORDEAUX,08.90.19.76.32
234,GILBERT,DUCLOS,2005/08/23,BOULOGNE-BILLANCOURT,08.54.10.31.86
413,LEOPOLD,GRANGER,2002/02/06,BOULOGNE-BILLANCOURT,08.85.53.91.01
187,NORA,GUILLEMIN,2003/06/08,BOULOGNE-BILLANCOURT,08.63.47.08.82
132,MAXIMILIEN,HERVE,2002/11/28,BOULOGNE-BILLANCOURT,08.47.83.42.51
231,JULIAN,LEFEVRE,2004/09/28,BOULOGNE-BILLANCOURT,08.25.53.51.80
13,ETIENNE,LETELLIER,2005/02/07,BOULOGNE-BILLANCOURT,08.45.14.26.48
363,ESTELLE,PINTO,2005/01/14,BOULOGNE-BILLANCOURT,08.99.73.27.95
443,REMY,REYNAUD,2003/09/11,BOULOGNE-BILLANCOURT,08.46.96.30.98
107,MARILYNE,SALLES,2002/05/29,BOULOGNE-BILLANCOURT,08.17.89.19.48
315,DIT,WAGNER,2002/10/14,BOULOGNE-BILLANCOURT,08.55.95.47.50
370,INGRID,BAUDOIN,2005/09/07,BREST,08.02.37.09.11
135,PAULETTE,BODIN,2003/09/08,BREST,08.39.53.76.99
155,AUGUSTE,BOUYER,2002/05/24,BREST,08.12.31.79.75
449,ODILE,CHAPUIS,2005/01/24,BREST,08.82.20.48.60
113,ALFRED,DUCHENE,2005/11/06,BREST,08.06.67.74.35
117,ISABELLE,GUEGAN,2005/12/21,BREST,08.23.11.31.32
467,MICHELE,JOUAN,2004/01/08,BREST,08.30.37.15.45
405,ABDEL,KELLER,2005/09/30,BREST,08.90.17.99.91
457,LISE,MAURY,2005/12/27,BREST,08.27.54.11.12
357,SAMIR,NICOLAS,2004/05/05,BREST,08.82.46.36.22
460,KARIMA,PERON,2005/02/27,BREST,08.70.05.19.35
124,LYDIE,SCHMITT,2004/10/20,BREST,08.53.72.23.97
180,ALI,TARDY,2004/01/15,BREST,08.38.21.54.01
197,SOLENE,THEBAULT,2003/05/24,BREST,08.97.42.31.12
280,FRED,BERTRAND,2002/02/16,CAEN,08.55.00.08.38
267,JEROME,COLAS,2003/12/11,CAEN,08.16.59.72.70
9,ROSALIE,FORT,2005/12/10,CAEN,08.14.47.35.39
57,ANGELIQUE,FORT,2003/05/02,CAEN,08.12.99.12.76
170,ELISE,LE GUEN,2003/04/25,CAEN,08.94.05.48.83
386,VALENTINE,LEMAITRE,2004/09/04,CAEN,08.17.16.43.11
142,AIME,MONNIER,2002/07/10,CAEN,08.41.91.34.84
407,PETER,SCHWARTZ,2004/12/29,CAEN,08.00.86.51.15
411,CLOTILDE,VALLEE,2005/10/27,CAEN,08.50.84.85.80
339,YOHAN,WALTER,2004/07/28,CAEN,08.95.47.25.89
319,MAGALIE,BAUDET,2003/02/26,CLERMONT-FERRAND,08.41.89.02.08
276,ALFRED,BERARD,2005/09/01,CLERMONT-FERRAND,08.65.97.23.66
358,THIBAUD,BONIN,2005/09/20,CLERMONT-FERRAND,08.45.68.81.54
112,TANIA,CHARRIER,2005/01/19,CLERMONT-FERRAND,08.73.25.66.15
217,MAHMOUD,FAUCHER,2002/10/01,CLERMONT-FERRAND,08.61.85.09.25
314,BARBARA,FRANCOIS,2002/10/12,CLERMONT-FERRAND,08.69.07.22.41
44,KHALED,JOURDAIN,2004/01/14,CLERMONT-FERRAND,08.90.17.67.15
282,MANON,LEJEUNE,2005/01/29,CLERMONT-FERRAND,08.41.86.68.06
448,CHRISTOPHER,MALLET,2002/12/25,CLERMONT-FERRAND,08.76.44.30.65
395,ANNY,NOEL,2002/05/13,CLERMONT-FERRAND,08.80.61.51.22
178,JESUS,PHILIPPE,2003/06/23,CLERMONT-FERRAND,08.16.81.13.42
171,WALTER,REDON,2003/04/29,CLERMONT-FERRAND,08.58.33.21.99
63,WILLY,ROQUES,2004/02/20,CLERMONT-FERRAND,08.61.07.37.98
209,BASILE,ROUSSEL,2005/09/22,CLERMONT-FERRAND,08.16.75.15.64
362,JUSTINE,ROYER,2005/09/11,CLERMONT-FERRAND,08.91.94.72.93
299,AHMED,SIMONIN,2002/03/03,CLERMONT-FERRAND,08.98.64.85.49
67,KHALID,VILLARD,2002/03/17,CLERMONT-FERRAND,08.68.59.38.18
322,MAMADOU,CORNU,2003/08/28,DIJON,08.04.61.05.58
245,RAPHAEL,DE OLIVEIRA,2002/07/04,DIJON,08.71.08.94.45
416,MELISSA,HAMEL,2003/02/22,DIJON,08.80.13.44.84
456,RACHID,LEBRETON,2002/04/22,DIJON,08.69.38.60.46
285,FARID,MORENO,2002/03/28,DIJON,08.13.87.18.22
177,CHARLIE,POISSON,2002/02/21,DIJON,08.18.17.31.01
2,PAMELA,TESSIER,2003/11/24,DIJON,08.54.13.83.50
130,MAGALI,BONNARD,2002/04/28,GRENOBLE,08.43.81.04.24
211,JEROME,COHEN,2002/11/09,GRENOBLE,08.62.48.53.84
469,JOHANNES,DIAZ,2003/04/06,GRENOBLE,08.20.73.33.84
499,FABIENNE,GOUJON,2003/08/09,GRENOBLE,08.47.06.16.11
286,AMBROISE,HERNANDEZ,2005/01/19,GRENOBLE,08.74.26.28.06
387,AURELIE,LESAGE,2005/05/09,GRENOBLE,08.88.06.91.13
80,ARLETTE,PAQUET,2005/02/07,GRENOBLE,08.07.74.32.02
169,ELIZABETH,PAYEN,2005/05/09,GRENOBLE,08.98.61.88.26
41,SAMIA,PRIGENT,2004/09/19,GRENOBLE,08.23.80.40.58
27,RODRIGUE,TORRES,2004/01/10,GRENOBLE,08.65.21.02.99
99,LEOPOLD,AUBERT,2002/12/06,LE HAVRE,08.13.36.81.32
304,REMI,BARON,2004/04/17,LE HAVRE,08.84.44.23.30
332,MEHMET,BRUNET,2002/03/22,LE HAVRE,08.97.57.99.96
293,EMMA,FAIVRE,2002/06/18,LE HAVRE,08.83.61.71.25
14,GIL,HARDY,2003/11/05,LE HAVRE,08.21.90.36.24
376,ALEXIS,HARDY,2004/03/09,LE HAVRE,08.63.68.49.16
242,ERIC,HERVE,2003/03/06,LE HAVRE,08.20.08.58.36
392,ADOLPHE,HOARAU,2003/04/21,LE HAVRE,08.14.22.71.88
60,SOFIANE,JEANNE,2003/09/19,LE HAVRE,08.19.47.26.98
166,ANITA,LAROCHE,2002/08/27,LE HAVRE,08.62.61.76.37
49,OSCAR,MEUNIER,2002/10/05,LE HAVRE,08.70.16.88.76
111,BETTY,BAUDIN,2003/03/21,LE MANS,08.22.97.73.24
475,SANDRINE,BERNARD,2005/09/29,LE MANS,08.32.15.91.16
430,GILBERTE,BOIS,2004/09/18,LE MANS,08.02.40.57.92
309,ISMAIL,DAHAN,2004/06/24,LE MANS,08.67.07.94.98
150,BERENGERE,ETIENNE,2002/09/22,LE MANS,08.47.55.42.36
434,JULIE,GILLES,2002/01/05,LE MANS,08.36.98.68.13
303,ZOHRA,GIORDANO,2003/02/17,LE MANS,08.57.95.52.75
156,YVETTE,GRONDIN,2005/03/04,LE MANS,08.59.07.30.88
108,ARTHUR,GUYON,2003/08/27,LE MANS,08.14.29.72.84
216,MARI,JACQUEMIN,2002/05/10,LE MANS,08.47.65.56.30
71,FATIHA,MAURIN,2005/02/24,LE MANS,08.39.01.83.12
412,ALEXANDRA,ROMAIN,2003/10/29,LE MANS,08.99.63.01.03
288,KIM,VERNET,2003/06/26,LE MANS,08.29.10.42.59
270,BASTIEN,BARRE,2002/02/22,LILLE,08.41.81.32.80
301,ANGELE,BENOIT,2002/03/30,LILLE,08.18.14.48.93
222,BEN,BRUNET,2002/05/28,LILLE,08.45.92.14.62
31,BEN,CAILLAUD,2002/04/05,LILLE,08.38.53.17.73
349,STEVEN,FLORES,2005/03/22,LILLE,08.01.38.71.05
300,CLAUDE,JOUBERT,2004/02/30,LILLE,08.61.40.34.72
54,VIVIEN,MARIE,2005/10/24,LILLE,08.22.49.77.71
50,ARLETTE,MENDES,2004/08/02,LILLE,08.49.65.06.89
244,VIRGINIE,MONTAGNE,2002/11/04,LILLE,08.99.67.91.26
51,LUDIVINE,MOREAU,2003/01/30,LILLE,08.82.26.44.46
74,VICTOR,PORTIER,2005/11/21,LILLE,08.27.00.76.99
183,MARTIN,SANTIAGO,2004/01/25,LILLE,08.53.89.29.66
330,HICHAM,ANTOINE,2002/09/07,LIMOGES,08.14.20.90.03
90,OLGA,BROCHARD,2004/12/25,LIMOGES,08.66.87.78.75
462,TAHAR,BRUNET,2003/04/01,LIMOGES,08.34.07.00.67
68,ANITA,CAILLET,2005/05/12,LIMOGES,08.85.15.14.69
43,CLAUDIA,GIBERT,2005/05/16,LIMOGES,08.69.12.56.25
491,DA,PUJOL,2002/10/26,LIMOGES,08.51.65.93.50
253,MARCEAU,REMY,2003/10/14,LIMOGES,08.52.05.04.14
401,JULIA,BOULANGER,2005/04/06,LYON,08.71.35.13.45
243,KATIA,BOURGUIGNON,2005/10/29,LYON,08.95.81.61.89
313,LOIC,CARRERE,2002/06/15,LYON,08.07.27.50.47
264,SYLVAIN,CHARRIER,2003/03/27,LYON,08.97.37.71.05
157,SEBASTIEN,CHAUVET,2005/05/01,LYON,08.31.11.48.49
195,ANGEL,CROS,2004/02/19,LYON,08.36.85.46.82
371,CORINE,DROUET,2002/12/10,LYON,08.40.99.84.49
248,HORTENSE,DUCHEMIN,2005/11/11,LYON,08.12.50.20.09
160,ERNEST,JARRY,2005/04/07,LYON,08.88.78.90.83
289,EDWIGE,LEDUC,2005/05/13,LYON,08.54.49.40.33
185,EMILIEN,LOPEZ,2002/06/29,LYON,08.04.62.02.09
262,GERMAINE,PICHON,2004/02/09,LYON,08.36.00.47.58
352,JOSETTE,PROVOST,2002/06/08,LYON,08.08.00.24.41
120,CHRISTELE,RAGOT,2003/03/17,LYON,08.34.07.57.74
374,CECILIA,SALMON,2004/02/30,LYON,08.90.29.22.16
64,MARC,SAUNIER,2003/06/03,LYON,08.31.12.85.31
167,PAULO,TORRES,2003/12/28,LYON,08.71.85.71.44
79,GEOFFREY,VALLEE,2004/01/03,LYON,08.90.03.02.00
459,HAMID,ALVES,2002/04/04,MARSEILLE,08.74.05.81.14
255,VERONIQUE,BAUDIN,2005/12/03,MARSEILLE,08.04.64.55.90
328,DIDIER,BOIVIN,2004/03/23,MARSEILLE,08.32.67.40.51
470,EDGAR,BONNET,2004/06/23,MARSEILLE,08.79.37.99.28
175,ALDO,BOUTIN,2002/07/25,MARSEILLE,08.14.42.54.35
429,PASCALINE,FAVIER,2004/04/07,MARSEILLE,08.16.56.18.70
122,LUCAS,GRAND,2002/11/08,MARSEILLE,08.16.63.34.36
368,ALAN,JOLIVET,2003/06/23,MARSEILLE,08.43.24.45.01
218,VICTORINE,LACOUR,2004/12/07,MARSEILLE,08.35.27.33.60
140,FATIHA,LANG,2002/06/10,MARSEILLE,08.63.46.51.05
84,SYLVAIN,PRIGENT,2002/11/07,MARSEILLE,08.76.47.33.91
490,MA,STEPHAN,2002/01/05,MARSEILLE,08.44.16.00.82
461,ANA,BAUDOUIN,2004/01/30,METZ,08.89.26.21.82
394,NICOLE,BOISSEAU,2004/08/24,METZ,08.11.47.33.77
230,LAURENT,COMBE,2004/07/11,METZ,08.38.56.47.09
201,KARIMA,DIJOUX,2002/10/30,METZ,08.47.06.67.56
184,ALBERTO,FABRE,2003/10/29,METZ,08.61.26.30.73
77,LUIS,FORESTIER,2003/03/16,METZ,08.60.85.28.42
23,YOUNES,JOLY,2005/07/08,METZ,08.75.60.13.47
333,FELICIE,LANG,2002/12/11,METZ,08.16.02.18.34
251,ANTONIA,LE,2005/01/10,METZ,08.67.98.00.42
431,ARTHUR,LEBON,2005/01/15,METZ,08.78.06.01.65
298,LOU,LECLERCQ,2003/03/18,METZ,08.87.28.77.13
497,PATRICE,LELEU,2003/05/03,METZ,08.11.38.78.15
56,DANIELE,LESAGE,2005/07/17,METZ,08.61.82.70.11
138,CATHY,LUCAS,2002/11/11,METZ,08.81.61.12.79
310,FERNANDO,MARIE,2005/01/12,METZ,08.58.80.02.81
473,GREGOIRE,MARY,2005/04/10,METZ,08.31.53.70.36
1,GLADYS,PARISOT,2002/06/03,METZ,08.73.16.29.09
145,PATRICK,PELISSIER,2002/04/02,METZ,08.38.35.04.95
269,VANESSA,VERNET,2002/09/19,METZ,08.70.02.25.13
200,ELIANE,BOUCHARD,2004/07/01,MONTPELLIER,08.02.46.00.61
316,CLAUDINE,BRUN,2004/08/09,MONTPELLIER,08.69.19.49.69
274,MIREILLE,CAILLAUD,2003/03/13,MONTPELLIER,08.96.58.32.36
366,ADELINE,CLAVEL,2002/10/19,MONTPELLIER,08.42.07.33.25
295,ALBERTINE,GUEGUEN,2003/01/21,MONTPELLIER,08.10.16.67.47
329,HECTOR,LAGARDE,2002/02/26,MONTPELLIER,08.16.31.31.51
33,YOHANN,LE GAL,2002/08/06,MONTPELLIER,08.52.52.40.81
488,NICOLAS,LECOMTE,2005/05/28,MONTPELLIER,08.25.06.25.87
306,ALDO,MIQUEL,2005/08/05,MONTPELLIER,08.27.62.02.53
225,EDITH,MOLINA,2004/12/18,MONTPELLIER,08.73.35.39.10
55,CHLOE,RAMOS,2002/12/17,MONTPELLIER,08.77.64.43.86
103,SLIMANE,BOIS,2004/11/10,MONTREUIL,08.64.16.86.36
193,ANDREE,BOULAY,2002/08/29,MONTREUIL,08.70.29.41.48
340,FRANCISCO,CHAUVET,2004/01/25,MONTREUIL,08.04.07.90.71
425,MARK,DUBOS,2005/05/17,MONTREUIL,08.54.91.32.97
466,CORALIE,GERMAIN,2005/04/26,MONTREUIL,08.06.69.52.73
356,FRED,GICQUEL,2004/12/01,MONTREUIL,08.40.40.06.92
105,ROMAIN,GONZALEZ,2003/09/19,MONTREUIL,08.22.95.57.20
69,FRANCK,GUIRAUD,2004/07/01,MONTREUIL,08.77.02.42.53
101,JOELLE,LE BRIS,2004/12/07,MONTREUIL,08.39.20.62.68
263,AURORE,ROLLAND,2002/03/29,MONTREUIL,08.37.07.41.47
441,PATRICIA,BERNIER,2003/09/03,MULHOUSE,08.68.10.22.22
7,RITA,DUPIN,2003/08/09,MULHOUSE,08.22.61.40.41
338,JANINE,FLORES,2004/01/13,MULHOUSE,08.15.67.93.76
307,ADAM,FONTAINE,2005/09/16,MULHOUSE,08.54.71.85.19
452,YOANN,FOURNIER,2005/04/12,MULHOUSE,08.81.55.34.57
59,SYLVAIN,LEGROS,2002/02/01,MULHOUSE,08.61.78.21.86
296,STEVEN,LETELLIER,2003/08/17,MULHOUSE,08.42.83.83.15
76,ADRIAN,TARDY,2004/02/17,MULHOUSE,08.61.17.96.89
121,JACOB,THIERY,2002/04/22,MULHOUSE,08.16.79.93.17
347,MATTHIEU,VIALA,2003/03/28,MULHOUSE,08.58.16.15.21
364,EVELINE,VIALA,2004/06/27,MULHOUSE,08.65.21.40.85
481,ANDREA,BOUDET,2005/05/12,NANCY,08.19.40.77.59
278,LEONTINE,CARTIER,2004/05/09,NANCY,08.53.95.75.83
17,RODOLPHE,DELORME,2003/09/10,NANCY,08.78.42.16.47
66,JOHANN,ESNAULT,2003/08/30,NANCY,08.95.08.42.92
238,ADOLPHE,GAY,2004/04/11,NANCY,08.96.40.15.55
454,FREDERIC,GEORGES,2004/06/10,NANCY,08.44.34.88.43
37,JACOB,LEON,2003/04/26,NANCY,08.62.98.89.55
134,JENNY,MARTINET,2005/11/06,NANCY,08.78.33.23.35
249,JENNIFER,MICHON,2003/10/14,NANCY,08.45.43.45.48
203,IGNACE,THEVENET,2004/03/15,NANCY,08.53.96.46.21
424,CLEMENT,BERTHET,2005/12/15,NANTES,08.83.48.00.16
426,ALBAN,GAUBERT,2003/08/23,NANTES,08.35.96.65.31
403,SAMI,JULLIEN,2002/10/14,NANTES,08.43.35.06.12
361,RENEE,LEMOINE,2002/11/15,NANTES,08.83.40.32.10
102,SACHA,MAYER,2003/08/05,NANTES,08.58.70.12.47
494,QUENTIN,MERLE,2005/10/30,NANTES,08.63.65.67.61
29,ROBERTE,NEVEU,2004/02/24,NANTES,08.02.22.61.42
453,LINDA,PROUST,2005/12/18,NANTES,08.81.55.80.66
144,FABIEN,ROQUES,2003/06/12,NANTES,08.69.11.32.21
212,ARMANDO,SERRES,2004/05/20,NANTES,08.15.29.91.53
240,YOUNES,TOURE,2004/04/30,NANTES,08.46.83.33.70
458,COLETTE,VIAL,2003/02/06,NANTES,08.55.76.32.05
125,SALOMON,BASTIEN,2002/07/28,NICE,08.26.59.53.30
20,DESIREE,BENARD,2005/10/25,NICE,08.46.00.12.26
375,NICOLE,BERTRAND,2003/10/30,NICE,08.43.09.91.35
428,ACHILLE,COLAS,2004/11/29,NICE,08.83.92.18.75
438,JULIA,DOS SANTOS,2005/09/21,NICE,08.68.65.52.21
148,ABRAHAM,GODARD,2004/01/28,NICE,08.60.38.27.04
331,REJANE,JIMENEZ,2005/05/21,NICE,08.57.38.57.38
436,JAN,LACOUR,2005/05/26,NICE,08.72.80.74.92
224,ASTRID,LAVIGNE,2004/11/29,NICE,08.76.58.67.77
345,AMAURY,MOINE,2003/01/10,NICE,08.50.84.41.10
123,PROSPER,REDON,2005/03/13,NICE,08.83.64.50.96
10,AURORE,WOLFF,2002/12/10,NICE,08.24.35.39.14
109,IDA,BARON,2003/06/28,NIMES,08.94.27.16.38
136,DESIRE,BLANCHET,2003/05/18,NIMES,08.91.10.80.06
25,GHISLAINE,COLIN,2004/02/07,NIMES,08.05.14.38.44
283,AUGUSTA,CORDIER,2004/05/16,NIMES,08.57.85.58.30
221,AXEL,LEGRAND,2005/02/21,NIMES,08.63.20.57.94
38,GUSTAVE,MACE,2002/10/01,NIMES,08.75.88.85.71
480,CLAIRE,MOREL,2002/03/27,NIMES,08.44.07.81.82
360,LEONCE,NGUYEN,2004/03/08,NIMES,08.58.46.44.19
388,ANTOINETTE,RAMOS,2004/03/16,NIMES,08.02.29.31.24
89,MOULOUD,THIERRY,2004/09/16,NIMES,08.23.49.01.13
359,ANNABELLE,VIVIER,2002/01/24,NIMES,08.39.57.16.58
487,SABRINA,BELLANGER,2002/10/16,ORLEANS,08.77.21.39.78
149,AXEL,BINET,2002/09/06,ORLEANS,08.31.06.16.22
188,ABDELHAMID,BOREL,2005/08/05,ORLEANS,08.88.60.55.04
163,ULYSSE,GARCIA,2003/09/05,ORLEANS,08.62.26.17.46
325,NELSON,GUEGAN,2003/06/01,ORLEANS,08.40.14.01.33
58,JOAO,MARECHAL,2005/04/13,ORLEANS,08.11.04.26.63
70,MICHEL,MARQUES,2002/09/26,ORLEANS,08.98.71.94.99
476,GAUTHIER,NOEL,2005/10/18,ORLEANS,08.03.29.77.56
11,HUBERT,RIBEIRO,2003/02/22,ORLEANS,08.15.96.40.18
42,EDMOND,RIGAL,2004/11/09,ORLEANS,08.04.62.57.82
396,YASMINA,BOUSQUET,2004/12/30,PARIS,08.84.25.17.45
127,SYLVIA,BOUVIER,2005/03/03,PARIS,08.59.76.95.73
365,AUGUSTINE,DIAZ,2005/11/20,PARIS,08.38.06.17.42
402,PEGGY,GAUTHIER,2002/11/09,PARIS,08.90.52.18.77
256,KAREN,LASSERRE,2002/05/27,PARIS,08.95.39.90.39
137,KARIMA,LEJEUNE,2004/06/24,PARIS,08.80.23.31.77
202,GERMAINE,LEPAGE,2005/09/16,PARIS,08.39.10.74.11
489,STEPHANE,MARECHAL,2004/11/11,PARIS,08.53.87.26.50
213,LOUIS,MERLE,2002/08/12,PARIS,08.30.89.06.69
261,ABDELLAH,MEYER,2005/06/10,PARIS,08.30.84.32.94
204,TRISTAN,PAPIN,2004/08/22,PARIS,08.72.07.90.12
40,ISMAIL,PONCET,2003/03/07,PARIS,08.39.02.67.95
385,ADRIENNE,RENAULT,2003/11/19,PARIS,08.91.76.75.88
408,HUSEYIN,RIVET,2003/08/29,PARIS,08.74.66.62.43
6,DANIEL,ROSSI,2005/10/03,PARIS,08.45.20.46.07
277,JEROME,BUISSON,2002/12/30,PERPIGNAN,08.67.27.99.32
78,JEANNINE,GUILBAUD,2005/12/01,PERPIGNAN,08.79.54.89.12
228,SAUVEUR,HUGUET,2003/07/22,PERPIGNAN,08.51.01.60.15
266,LILIAN,LEFRANC,2003/05/28,PERPIGNAN,08.66.83.11.12
91,THIERRY,MAILLARD,2003/11/14,PERPIGNAN,08.25.76.81.66
500,EL,MICHEL,2002/10/11,PERPIGNAN,08.98.49.51.45
409,CATHY,NORMAND,2005/03/22,PERPIGNAN,08.28.73.53.03
383,JOHANNES,ROUSSEAU,2003/07/30,PERPIGNAN,08.40.77.97.08
447,ANNICK,SOULIE,2003/04/20,PERPIGNAN,08.67.91.33.58
196,ROLAND,THIBAULT,2002/08/02,PERPIGNAN,08.45.12.96.12
265,BASILE,BABIN,2004/08/28,REIMS,08.97.01.73.87
451,FATIMA,CHEVRIER,2004/04/26,REIMS,08.58.80.01.84
257,PRISCILLA,COLIN,2002/10/11,REIMS,08.56.41.62.94
219,JUSTIN,CORRE,2005/10/24,REIMS,08.30.76.68.52
272,HIPPOLYTE,CROUZET,2005/10/19,REIMS,08.36.91.82.61
95,LESLIE,FAUCHER,2002/05/24,REIMS,08.05.98.07.84
15,EUGENE,GOMES,2004/10/19,REIMS,08.81.15.44.48
237,ALI,HOFFMANN,2003/07/12,REIMS,08.00.93.33.28
273,DYLAN,JACQUES,2002/03/02,REIMS,08.16.08.43.02
254,MAITE,JOLIVET,2002/03/20,REIMS,08.00.34.70.93
350,HENRY,LAFONT,2002/02/13,REIMS,08.44.18.85.11
241,WILFRIED,OLIVIER,2004/05/12,REIMS,08.60.40.77.08
158,AIMEE,PUJOL,2004/09/27,REIMS,08.35.71.18.58
275,ESTELLE,RENOU,2005/10/15,REIMS,08.00.55.29.15
181,BRAHIM,VACHER,2005/01/17,REIMS,08.74.60.81.53
465,BAPTISTE,VILLARD,2002/03/08,REIMS,08.71.23.22.14
97,NORBERT,ARNAUD,2004/10/15,RENNES,08.58.79.87.76
400,PASCAL,AUBERT,2004/11/07,RENNES,08.53.29.26.47
153,ELENA,BASTIEN,2002/12/26,RENNES,08.01.03.88.13
346,ANNY,COSTE,2004/08/03,RENNES,08.60.24.03.33
337,ANTHONY,DUPOUY,2002/05/28,RENNES,08.10.90.85.50
355,LUCIE,EVRARD,2004/10/01,RENNES,08.99.19.00.83
367,ROSELINE,GIBERT,2005/02/03,RENNES,08.31.09.49.93
190,ANDRE,HUE,2003/05/18,RENNES,08.38.25.49.38
19,FABIEN,JACQUET,2005/10/13,RENNES,08.50.12.31.44
312,FATMA,MAURIN,2005/03/01,RENNES,08.84.24.59.23
472,IVAN,BOUCHET,2004/04/26,ROUEN,08.47.47.04.92
308,PRISCILLA,BRESSON,2005/11/25,ROUEN,08.40.93.06.02
154,MYRIAM,BRUNET,2005/01/06,ROUEN,08.31.16.27.07
344,AMINA,CASTEL,2004/03/01,ROUEN,08.85.95.60.42
246,INGRID,COURTOIS,2003/10/21,ROUEN,08.69.56.51.12
335,LISA,GABRIEL,2004/11/10,ROUEN,08.50.48.46.95
294,ROXANE,GUILBAUD,2004/03/20,ROUEN,08.83.66.28.42
110,EDWARD,LECOMTE,2003/09/03,ROUEN,08.75.42.25.09
341,CHARLY,LOPEZ,2002/08/24,ROUEN,08.42.96.88.34
482,NORA,MAIRE,2005/04/27,ROUEN,08.39.93.00.76
415,SALVATORE,MONTEIL,2003/11/15,ROUEN,08.93.06.16.06
305,JULIAN,REMY,2002/02/12,ROUEN,08.56.68.17.49
287,TIPHAINE,RIGAUD,2002/06/12,ROUEN,08.88.82.17.28
208,FRANCOIS,BAUDOIN,2005/01/28,SAINT-DENIS,08.08.70.78.54
471,REINE,BOUYER,2004/06/06,SAINT-DENIS,08.27.71.48.47
52,CARMEN,BRUNEAU,2004/04/14,SAINT-DENIS,08.21.90.72.21
232,BASILE,DEJEAN,2003/12/24,SAINT-DENIS,08.94.08.13.71
479,GAEL,DIDIER,2002/05/17,SAINT-DENIS,08.63.98.56.73
21,MURIELLE,DUMAS,2005/12/15,SAINT-DENIS,08.45.68.11.51
72,LAURE,FAIVRE,2005/07/09,SAINT-DENIS,08.58.78.65.17
12,MARIUS,FAUCHER,2004/11/24,SAINT-DENIS,08.70.63.95.21
464,MOHAMMED,GABRIEL,2004/06/04,SAINT-DENIS,08.94.44.26.49
493,ALISON,GAUBERT,2005/12/23,SAINT-DENIS,08.59.64.92.66
445,DOLORES,LALLEMAND,2002/11/28,SAINT-DENIS,08.12.40.25.04
115,ANTONIN,LAURENT,2002/10/25,SAINT-DENIS,08.63.25.62.27
176,PIERRETTE,LEBEAU,2002/04/27,SAINT-DENIS,08.06.42.41.88
46,RICARDO,LECOMTE,2003/04/02,SAINT-DENIS,08.85.60.90.45
397,GILDAS,PERRIN,2005/12/01,SAINT-DENIS,08.94.47.11.23
418,SONIA,SCHWARTZ,2004/11/01,SAINT-DENIS,08.78.73.66.77
61,BARTHELEMY,VILLARD,2005/04/26,SAINT-DENIS,08.31.76.70.72
114,PATRICK,VIVIER,2005/02/12,SAINT-DENIS,08.39.06.02.77
389,CHARLINE,BONNIN,2002/11/18,SAINT-ETIENNE,08.42.94.39.49
205,CLAIRE,DELPECH,2002/06/23,SAINT-ETIENNE,08.09.74.51.95
281,FLAVIEN,DESCHAMPS,2004/09/30,SAINT-ETIENNE,08.59.33.28.03
18,ERIK,LACOMBE,2002/09/21,SAINT-ETIENNE,08.82.51.22.03
227,AURELIE,LEGRAND,2003/11/29,SAINT-ETIENNE,08.60.46.11.35
440,HABIB,LEON,2004/06/20,SAINT-ETIENNE,08.81.41.88.28
141,VICTOR,MATHIEU,2005/01/16,SAINT-ETIENNE,08.04.74.99.34
207,DANIELLE,MAUREL,2005/01/15,SAINT-ETIENNE,08.05.74.01.90
354,SIMON,MICHELET,2002/08/28,SAINT-ETIENNE,08.46.06.59.64
432,MICKAEL,RAULT,2004/04/03,SAINT-ETIENNE,08.80.69.84.77
126,LYDIA,VIVIER,2003/01/18,SAINT-ETIENNE,08.73.19.64.36
342,ANTOINE,BATAILLE,2002/12/19,SAINT-PAUL,08.75.67.31.73
98,MARK,BAUDRY,2004/11/11,SAINT-PAUL,08.02.09.53.79
233,RACHEL,BILLON,2003/01/20,SAINT-PAUL,08.50.47.18.94
284,CHRISTINE,COUTURIER,2005/11/07,SAINT-PAUL,08.54.76.90.57
435,KHADIJA,FOREST,2005/06/08,SAINT-PAUL,08.24.77.54.16
380,EMERIC,FORT,2003/09/12,SAINT-PAUL,08.29.63.27.59
343,ANTONIN,LACAZE,2003/01/26,SAINT-PAUL,08.29.08.41.90
381,IBRAHIM,LACOMBE,2004/12/24,SAINT-PAUL,08.67.22.64.86
369,ERIK,LAGARDE,2005/12/27,SAINT-PAUL,08.35.09.40.01
128,MAXENCE,LE CORRE,2004/03/28,SAINT-PAUL,08.70.77.90.74
485,JUSTINE,MASSON,2004/07/15,SAINT-PAUL,08.12.94.15.36
391,OLIVIA,MOHAMED,2003/06/08,SAINT-PAUL,08.52.89.89.95
484,RENEE,POMMIER,2005/05/25,SAINT-PAUL,08.65.18.69.90
151,JOAO,ROBERT,2003/01/23,SAINT-PAUL,08.62.90.24.10
199,DRISS,THIEBAUT,2005/07/01,SAINT-PAUL,08.37.29.23.49
226,YASMINA,VALETTE,2005/04/17,SAINT-PAUL,08.01.13.28.27
152,EL,VERDIER,2005/11/24,SAINT-PAUL,08.47.81.65.76
229,TRISTAN,BARON,2002/11/28,STRASBOURG,08.22.34.27.44
191,CHRISTEL,BEAU,2003/08/05,STRASBOURG,08.60.28.89.59
495,JAMEL,BLIN,2004/01/11,STRASBOURG,08.98.71.60.01
45,GERARD,BRIAND,2005/08/25,STRASBOURG,08.12.49.55.56
116,LEONCE,CHAMPION,2003/12/02,STRASBOURG,08.61.54.60.39
30,MARIA,COCHET,2002/01/25,STRASBOURG,08.97.33.45.74
75,TONY,DIALLO,2004/03/12,STRASBOURG,08.93.00.87.73
291,LUIGI,DOUCET,2002/04/19,STRASBOURG,08.62.46.35.24
88,RICARDO,DUPUIS,2004/01/22,STRASBOURG,08.89.59.02.30
421,SALAH,FERREIRA,2003/06/12,STRASBOURG,08.45.96.87.10
321,HELENA,GUILLOU,2005/05/30,STRASBOURG,08.64.01.16.87
34,LAHCEN,KLEIN,2003/09/06,STRASBOURG,08.22.62.90.99
450,AUGUSTINE,MOULIN,2004/08/17,STRASBOURG,08.67.04.51.74
297,GILLES,THOMAS,2003/04/02,STRASBOURG,08.79.51.90.90
87,STANISLAS,VIGOUROUX,2003/02/20,STRASBOURG,08.91.23.39.23
192,DIEGO,BOIS,2005/10/21,TOULON,08.22.11.73.04
3,ANTHONY,BOUSQUET,2003/11/18,TOULON,08.77.04.62.95
215,MYLENE,CAILLAUD,2002/12/11,TOULON,08.73.52.38.76
220,PAULO,CARPENTIER,2005/10/28,TOULON,08.61.90.63.41
24,JOAO,FABRE,2002/09/23,TOULON,08.29.69.68.63
83,AIME,GOMEZ,2002/03/08,TOULON,08.46.79.84.91
498,FREDERIC,GRONDIN,2003/03/15,TOULON,08.69.82.80.47
442,BRUNO,JACQUOT,2002/10/22,TOULON,08.96.26.67.65
446,GILBERTE,LE GAL,2003/04/14,TOULON,08.17.52.92.84
165,JUAN,LOUIS,2002/11/24,TOULON,08.35.99.12.69
223,BAPTISTE,MORICE,2005/11/22,TOULON,08.25.40.03.01
186,EUGENIE,PASTOR,2002/01/22,TOULON,08.52.91.67.46
399,CONSTANCE,PAYET,2005/06/21,TOULON,08.34.43.32.14
463,TEDDY,STEPHAN,2002/08/26,TOULON,08.95.68.62.00
468,ERICK,VIVIER,2003/09/18,TOULON,08.34.81.37.45
373,JASON,WEISS,2005/10/07,TOULON,08.68.43.31.05
455,MARYSE,ANDRIEUX,2002/05/02,TOULOUSE,08.68.73.46.16
35,LUCIEN,BLAISE,2005/03/09,TOULOUSE,08.14.90.31.42
26,CLOTILDE,BLANCHET,2004/05/08,TOULOUSE,08.85.50.24.83
48,JAMAL,BRUNET,2002/12/26,TOULOUSE,08.23.50.42.64
478,CAROLINE,CARLIER,2002/02/09,TOULOUSE,08.43.93.95.16
133,CLAUDETTE,DUCLOS,2005/03/26,TOULOUSE,08.25.25.38.86
492,LUCIENNE,GONZALEZ,2004/03/16,TOULOUSE,08.14.38.18.30
379,GISELE,GRAS,2003/06/15,TOULOUSE,08.27.23.16.17
147,SYLVIE,GUILLARD,2005/08/17,TOULOUSE,08.63.74.02.35
398,ANITA,HARDY,2005/09/29,TOULOUSE,08.66.44.29.70
378,PEDRO,JACQUOT,2003/01/28,TOULOUSE,08.85.50.97.35
5,MARION,ROMAIN,2002/04/29,TOULOUSE,08.37.32.57.00
393,ABEL,SALLES,2002/07/08,TOULOUSE,08.65.67.65.72
406,CELINE,SERRANO,2005/06/18,TOULOUSE,08.54.50.84.69
410,JEANNE,TELLIER,2002/08/05,TOULOUSE,08.31.59.83.98
348,MOHAMMAD,VALLEE,2004/01/17,TOULOUSE,08.45.09.43.29
189,JESSY,DELAGE,2004/01/15,TOURS,08.23.00.25.37
423,MARINETTE,DUJARDIN,2002/01/23,TOURS,08.26.06.94.20
164,EDWIGE,ESTEVE,2004/11/20,TOURS,08.34.56.77.10
422,ELODIE,GIRARD,2003/04/24,TOURS,08.26.62.31.21
28,MICHELLE,HERVE,2005/07/19,TOURS,08.24.27.43.96
236,BETTY,JOURDAN,2004/05/10,TOURS,08.49.27.71.78
139,SALEM,LELEU,2002/04/12,TOURS,08.68.75.83.41
36,PATRICE,MAILLOT,2005/03/21,TOURS,08.38.24.83.04
206,LEOPOLD,MASSON,2004/11/12,TOURS,08.64.03.51.59
173,MARLENE,MENDES,2004/05/28,TOURS,08.49.31.78.16
179,ELISA,PELTIER,2002/08/25,TOURS,08.21.74.24.87
182,AURELIEN,PICOT,2004/05/30,TOURS,08.27.53.81.68
496,DIANE,PINTO,2002/05/20,TOURS,08.57.46.21.00
353,MORGANE,PREVOT,2002/07/18,TOURS,08.08.78.74.07
143,LAURENCE,SIMON,2003/02/02,TOURS,08.15.76.95.14
39,OLGA,BARBE,2002/08/08,VILLEURBANNE,08.75.56.89.29
47,RAPHAELLE,BERTRAND,2003/08/19,VILLEURBANNE,08.59.04.60.05
81,LAURE,BOUSQUET,2003/10/19,VILLEURBANNE,08.10.35.45.77
290,IBRAHIM,BROCHARD,2004/03/18,VILLEURBANNE,08.84.03.83.03
326,ISMAIL,BUREL,2002/02/12,VILLEURBANNE,08.08.59.64.90
118,DANIELLE,CHARBONNIER,2002/01/26,VILLEURBANNE,08.33.17.53.48
131,VERONIQUE,DAHAN,2004/03/25,VILLEURBANNE,08.21.44.79.62
258,AUGUSTIN,DUMOULIN,2004/10/21,VILLEURBANNE,08.42.12.00.04
390,YVONNE,FLORES,2003/05/30,VILLEURBANNE,08.89.78.06.16
198,CYRIL,LEGER,2002/12/23,VILLEURBANNE,08.92.87.09.09
404,HENRI,LEON,2002/10/20,VILLEURBANNE,08.08.61.63.01
427,ALINE,LERAY,2004/12/19,VILLEURBANNE,08.13.46.88.53
483,LUCILE,THERY,2003/06/01,VILLEURBANNE,08.65.98.28.81
8,JORIS,THEVENIN,2003/11/28,VILLEURBANNE,08.09.37.37.54
317,MANUELA,VERRIER,2005/09/10,VILLEURBANNE,08.25.14.80.23
